%YAML 1.1
%TAG !u! tag:unity3d.com,2011:
--- !u!74 &7400000
AnimationClip:
  m_ObjectHideFlags: 0
  m_PrefabParentObject: {fileID: 0}
  m_PrefabInternal: {fileID: 0}
  m_Name: robot_interrupted
  serializedVersion: 6
  m_Legacy: 0
  m_Compressed: 0
  m_UseHighQualityCurve: 1
  m_RotationCurves: []
  m_CompressedRotationCurves: []
  m_EulerCurves: []
  m_PositionCurves: []
  m_ScaleCurves: []
  m_FloatCurves: []
  m_PPtrCurves:
  - curve:
    - time: 0
      value: {fileID: 21300000, guid: 0f7a0e5d3ca0e45adb86d58f63a02e15, type: 3}
    - time: 0.11666667
      value: {fileID: 21300000, guid: 82fdb93a38060416f80e89c4d5423ce8, type: 3}
    - time: 0.23333333
      value: {fileID: 21300000, guid: fe219310e7ffb4043ae5abe23e991fa6, type: 3}
    - time: 0.35
      value: {fileID: 21300000, guid: 9bd71e64fab324a798e3b96d3513725f, type: 3}
    - time: 0.46666667
      value: {fileID: 21300000, guid: fe219310e7ffb4043ae5abe23e991fa6, type: 3}
    - time: 0.5833333
      value: {fileID: 21300000, guid: 9bd71e64fab324a798e3b96d3513725f, type: 3}
    - time: 0.7
      value: {fileID: 21300000, guid: fe219310e7ffb4043ae5abe23e991fa6, type: 3}
    - time: 0.81666666
      value: {fileID: 21300000, guid: 82fdb93a38060416f80e89c4d5423ce8, type: 3}
    - time: 0.93333334
      value: {fileID: 21300000, guid: 0f7a0e5d3ca0e45adb86d58f63a02e15, type: 3}
    attribute: m_Sprite
    path: robot_arms
    classID: 212
    script: {fileID: 0}
  m_SampleRate: 60
  m_WrapMode: 0
  m_Bounds:
    m_Center: {x: 0, y: 0, z: 0}
    m_Extent: {x: 0, y: 0, z: 0}
  m_ClipBindingConstant:
    genericBindings:
    - serializedVersion: 2
      path: 2593973909
      attribute: 0
      script: {fileID: 0}
      typeID: 212
      customType: 23
      isPPtrCurve: 1
    pptrCurveMapping:
    - {fileID: 21300000, guid: 0f7a0e5d3ca0e45adb86d58f63a02e15, type: 3}
    - {fileID: 21300000, guid: 82fdb93a38060416f80e89c4d5423ce8, type: 3}
    - {fileID: 21300000, guid: fe219310e7ffb4043ae5abe23e991fa6, type: 3}
    - {fileID: 21300000, guid: 9bd71e64fab324a798e3b96d3513725f, type: 3}
    - {fileID: 21300000, guid: fe219310e7ffb4043ae5abe23e991fa6, type: 3}
    - {fileID: 21300000, guid: 9bd71e64fab324a798e3b96d3513725f, type: 3}
    - {fileID: 21300000, guid: fe219310e7ffb4043ae5abe23e991fa6, type: 3}
    - {fileID: 21300000, guid: 82fdb93a38060416f80e89c4d5423ce8, type: 3}
    - {fileID: 21300000, guid: 0f7a0e5d3ca0e45adb86d58f63a02e15, type: 3}
  m_AnimationClipSettings:
    serializedVersion: 2
    m_AdditiveReferencePoseClip: {fileID: 0}
    m_AdditiveReferencePoseTime: 0
    m_StartTime: 0
    m_StopTime: 0.95
    m_OrientationOffsetY: 0
    m_Level: 0
    m_CycleOffset: 0
    m_HasAdditiveReferencePose: 0
    m_LoopTime: 0
    m_LoopBlend: 0
    m_LoopBlendOrientation: 0
    m_LoopBlendPositionY: 0
    m_LoopBlendPositionXZ: 0
    m_KeepOriginalOrientation: 0
    m_KeepOriginalPositionY: 1
    m_KeepOriginalPositionXZ: 0
    m_HeightFromFeet: 0
    m_Mirror: 0
  m_EditorCurves: []
  m_EulerEditorCurves: []
  m_HasGenericRootTransform: 0
  m_HasMotionFloatCurves: 0
  m_GenerateMotionCurves: 0
  m_Events: []
